Introduction to Data Science - 19 Association is not causation
…
The first column denotes group. We created groups. For each group, we generated a pair of independent vectors, \(X\) and \(Y\), with 25 observations each, stored in the second and third columns. Because we constructed the simulation, we know that \(X\) and \(Y\) are not correlated.

Next, we compute the correlation between X and Y for each group and look at the max:

res <- sim_data |> 
  group_by(group) |> 
  summarize(r = cor(x, y)) |> 
  arrange(desc(r))
res
#> # A tibble: 1,000,000 × 2
#>    group     r
#>    <int> <dbl>
#> 1 180152 0.796
#> 2 902354 0.790
#> 3 410920 0.785
#> 4 796016 0.760
#> 5 542451 0.760
#> # ℹ 999,995 more rows
…
two_by_two <- admissions |> group_by(gender) |> 
  summarize(total_admitted = round(sum(admitted / 100 * applicants)), 
            not_admitted = sum(applicants) - sum(total_admitted)) |>
  select(-gender) 
  
chisq.test(two_by_two)$p.value
#> [1] 1.06e-21

But closer inspection shows a paradoxical result. Here are the percent admissions by major:

admissions |> select(major, gender, admitted) |>
  pivot_wider(names_from = "gender", values_from = "admitted") |>
  mutate(women_minus_men = women - men)
#> # A tibble: 6 × 4
#>   major   men women women_minus_men
#>   <chr> <dbl> <dbl>           <dbl>
#> 1 A        62    82              20
#> 2 B        63    68               5
#> 3 C        37    34              -3
#> 4 D        33    35               2
#> 5 E        28    24              -4
#> # ℹ 1 more row
…
