18 Generalized Linear Models – Introduction to Data Science
…
Spray C appears most effective. We could compare mean insect counts across sprays:

with(InsectSprays, tapply(count, spray, mean))

But how do we assess uncertainty? Can we construct confidence inteverals? Note that counts are small (often under 10), and the sample size per group is only 12, so normal approximations may be unreliable.

A Poisson regression provides an alternative. First we choose C as the reference group and then we fit the model:

InsectSprays$spray <- relevel(InsectSprays$spray, ref = "C") 
fit <- glm(count ~ spray, family = poisson, data = InsectSprays)
tidy(fit, conf.int = TRUE)
#> # A tibble: 6 × 7
#>   term        estimate std.error statistic  p.value conf.low conf.high
#>   <chr>          <dbl>     <dbl>     <dbl>    <dbl>    <dbl>     <dbl>
#> 1 (Intercept)    0.734     0.200      3.67 2.43e- 4   0.315       1.10
#> 2 sprayA         1.94      0.214      9.07 1.18e-19   1.54        2.38
#> 3 sprayB         2.00      0.213      9.36 7.65e-21   1.60        2.44
#> 4 sprayD         0.859     0.239      3.60 3.20e- 4   0.404       1.34
#> 5 sprayE         0.519     0.253      2.05 4.00e- 2   0.0315      1.03
#> # ℹ 1 more row
…
