20 Multivariable Regression – Introduction to Data Science
…
Once we stratify by HR, these slopes are substantially reduced:

dat |> mutate(hr_strata = round(HR, 1)) |> 
  filter(hr_strata >= 0.5 & hr_strata <= 1.2) |>  
  group_by(hr_strata) |>
  summarize(coef = lm(R ~ BB)$coef[2])
#> # A tibble: 8 × 2
#>   hr_strata  coef
#>       <dbl> <dbl>
#> 1       0.5 0.566
#> 2       0.6 0.405
#> 3       0.7 0.284
#> 4       0.8 0.370
#> 5       0.9 0.266
#> # ℹ 3 more rows

Remember that the regression slope for predicting runs with BB was 0.7.

The slopes are reduced, but they are not 0, which indicates that BB are helpful for producing runs, just not as much as suggested by the single variable analysis. In fact, the values above are closer to the slope we obtained from singles, 0.5, which is more consistent with our intuition. Since both singles and BB get us to first base, they should have about the same predictive power.

Although our understanding of the application tells us that HR cause BB, but not the other way around, we can still check if stratifying by BB makes the effect of BB go down. To do this, we use the same code except that we swap HR and BB. In this case, the slopes do not change much from the original:

dat |> mutate(bb_strata = round(BB, 1)) |> 
  filter(bb_strata >= 2.5 & bb_strata <= 3.2) |>  
  group_by(bb_strata) |>
  summarize(coef = lm(R ~ HR)$coef[2])
#> # A tibble: 8 × 2
#>   bb_strata  coef
#>       <dbl> <dbl>
#> 1       2.5  1.98
#> 2       2.6  1.07
#> 3       2.7  1.61
#> 4       2.8  1.50
#> 5       2.9  1.57
#> # ℹ 3 more rows
…
Finally, we remove pitchers since we are only interested in batters.

players <- Appearances |> filter(yearID == 2002) |> 
  group_by(playerID) |>
  summarize(G_p = sum(G_p)) |>
  right_join(players, by = "playerID") |>
  filter(G_p == 0) |> select(-G_p)

If you followed baseball during the era in question you will recognize the top run producers and not be surprised that garnered high salaries:

players |> select(nameFirst, nameLast, R_hat, salary) |> 
  arrange(desc(R_hat)) |> head()
#> # A tibble: 6 × 4
#>   nameFirst nameLast R_hat   salary
#>   <chr>     <chr>    <dbl>    <int>
#> 1 Barry     Bonds    0.239 15000000
#> 2 Todd      Helton   0.218  5000000
#> 3 Manny     Ramirez  0.216 15462727
#> 4 Jason     Giambi   0.215 10428571
#> 5 Larry     Walker   0.213 12666667
#> # ℹ 1 more row
…
filter(players, playerID %in% c("damonjo01", "giambja01", "menecfr01")) |> 
  bind_rows(filter(players, playerID %in% c("justida01", "durhara01", "hattesc01"))) |> 
  select(nameFirst, nameLast, AVG, BB,  R_hat) 
#> # A tibble: 6 × 5
#>   nameFirst nameLast    AVG     BB R_hat
#>   <chr>     <chr>     <dbl>  <dbl> <dbl>
#> 1 Johnny    Damon     0.296 0.0930 0.141
#> 2 Jason     Giambi    0.330 0.188  0.215
#> 3 Frank     Menechino 0.245 0.137  0.126
#> 4 Ray       Durham    0.281 0.103  0.141
#> 5 Scott     Hatteberg 0.257 0.131  0.128
#> # ℹ 1 more row
…
