Advanced Data Science - 15 Multivariate Regression
…
Remember that the regression slope for predicting runs with BB was 0.7. Once we stratify by HR, these slopes are substantially reduced:

dat |> mutate(hr_strata = round(hr, 1)) |> 
  filter(hr_strata >= 0.5 & hr_strata <= 1.2) |>  
  group_by(hr_strata) |>
  reframe(tidy(lm(r ~ bb))) |>
  filter(term == "bb")
#> # A tibble: 8 × 6
#>   hr_strata term  estimate std.error statistic      p.value
#>       <dbl> <chr>    <dbl>     <dbl>     <dbl>        <dbl>
#> 1       0.5 bb       0.566    0.110       5.14 0.00000302  
#> 2       0.6 bb       0.405    0.0984      4.12 0.0000746   
#> 3       0.7 bb       0.284    0.0717      3.96 0.000113    
#> 4       0.8 bb       0.378    0.0638      5.92 0.0000000175
#> 5       0.9 bb       0.254    0.0762      3.33 0.00108     
#> # ℹ 3 more rows

Note we use reframe instead of summarize because tidy returns a data frame with two rows.

The slopes are reduced, but they are not 0, which indicates that BBs are helpful for producing runs, just not as much as previously thought. In fact, the values above are closer to the slope we obtained from singles, 0.4, which is more consistent with our intuition. Since both singles and BB get us to first base, they should have about the same predictive power.

Although our understanding of the application tells us that HR cause BB, but not the other way around, we can still check if stratifying by BB makes the effect of BB go down. To do this, we use the same code except that we swap HR and BBs. In this case, the slopes do not change much from the original:

dat |> mutate(bb_strata = round(bb, 1)) |> 
  filter(bb_strata >= 3 & bb_strata <= 4) |>  
  group_by(bb_strata) |>
  reframe(tidy(lm(r ~ hr))) |>
  filter(term == "hr")
#> # A tibble: 11 × 6
#>   bb_strata term  estimate std.error statistic  p.value
#>       <dbl> <chr>    <dbl>     <dbl>     <dbl>    <dbl>
#> 1       3   hr        1.51     0.182      8.31 1.47e-12
#> 2       3.1 hr        1.49     0.168      8.87 3.10e-14
#> 3       3.2 hr        1.61     0.150     10.8  6.96e-18
#> 4       3.3 hr        1.57     0.167      9.39 5.73e-15
#> 5       3.4 hr        1.55     0.153     10.1  3.77e-16
#> # ℹ 6 more rows
…
