Introduction to Data Science - 23 Regularization
…
Now, let’s look at the top 5 best movies based on the penalized estimates \(\hat{b}_i(\lambda)\):

#> # A tibble: 10 × 5
#>   title                      year rating b_reg     n
#>   <chr>                     <int>  <dbl> <dbl> <dbl>
#> 1 Shawshank Redemption, The  1994   4.57 0.793   138
#> 2 Chinatown                  1974   4.5  0.734    51
#> 3 Dangerous Beauty           1998   4.5  0.764     2
#> 4 Godfather, The             1972   4.45 0.774   107
#> 5 Usual Suspects, The        1995   4.40 0.752   109
#> # ℹ 5 more rows
…
