13 Hierarchichal Models – Introduction to Data Science
…
results <- polls_us_election_2016 |>
  filter(state != "U.S." & 
           !grepl("CD", state) & 
           enddate >= "2016-10-31" & 
           (grade %in% c("A+","A","A-","B+") | is.na(grade))) |>
  mutate(spread = rawpoll_clinton/100 - rawpoll_trump/100) |>
  group_by(state) |>
  summarize(avg = mean(spread), sd = sd(spread), n = n()) |>
  mutate(state = as.character(state))

Here are the five closest races according to the polls:

results |> arrange(abs(avg))
#> # A tibble: 47 × 4
#>   state               avg     sd     n
#>   <chr>             <dbl>  <dbl> <int>
#> 1 Florida         0.00356 0.0163     7
#> 2 North Carolina -0.0073  0.0306     9
#> 3 Ohio           -0.0104  0.0252     6
#> 4 Nevada          0.0169  0.0441     7
#> 5 Iowa           -0.0197  0.0437     3
#> # ℹ 42 more rows
…
Because we can’t estimate the standard deviation for states with just one poll, we will estimate it as the median of the standard deviations estimated for states with more than one poll:

results <- results |>
  mutate(sd = ifelse(is.na(sd), median(results$sd, na.rm = TRUE), sd))

To make probabilistic arguments, we will use a Monte Carlo simulation. For each state, we apply the Bayesian approach to generate an election day \(\mu\). We could construct the priors for each state based on recent history. However, to keep it simple, we assign a prior to each state that assumes we know nothing about what will happen. Given that results from a specific state don’t vary significantly from election year to election year, we will assign a standard deviation of 2% or \(\tau=0.02\). For now, we will assume, incorrectly, that the poll results from each state are independent. The code for the Bayesian calculation under these assumptions looks like this:

mu <- 0
tau <- 0.02
results |> mutate(sigma = sd/sqrt(n), 
                   B = sigma^2/(sigma^2 + tau^2),
                   posterior_mean = B*mu + (1 - B)*avg,
                   posterior_se = sqrt(1/(1/sigma^2 + 1/tau^2)))
#> # A tibble: 47 × 12
#>   state          avg       sd     n electoral_votes clinton trump others
#>   <chr>        <dbl>    <dbl> <int>           <int>   <dbl> <dbl>  <dbl>
#> 1 Alabama    -0.149  0.0253       3               9    34.4  62.1    3.6
#> 2 Arizona    -0.0326 0.0270       9              11    45.1  48.7    6.2
#> 3 Arkansas   -0.151  0.000990     2               6    33.7  60.6    5.8
#> 4 California  0.260  0.0387       5              55    61.7  31.6    6.7
#> 5 Colorado    0.0452 0.0295       7               9    48.2  43.3    8.6
#> # ℹ 42 more rows
#> # ℹ 4 more variables: sigma <dbl>, B <dbl>, posterior_mean <dbl>,
#> #   posterior_se <dbl>
…
