Introduction to Data Science - 11 Data-driven models
…
The data does not appear to be normally distributed, and the standard error appears to be larger than 0.0066232. The theory is not working here, and in the next section, we describe a useful data-driven model.

11.2 Beyond the simple sampling model

Notice that data come from various pollsters, and some are taking several polls a week:

polls |> group_by(pollster) |> summarize(n())
#> # A tibble: 15 × 2
#>   pollster                                                   `n()`
#>   <fct>                                                      <int>
#> 1 ABC News/Washington Post                                       7
#> 2 Angus Reid Global                                              1
#> 3 CBS News/New York Times                                        2
#> 4 Fox News/Anderson Robbins Research/Shaw & Company Research     2
#> 5 IBD/TIPP                                                       8
#> # ℹ 10 more rows
…
